{
    "fields": {
        "id": "increments",
        "name": "string:200|index",
        "slug": "string:200|index",
        "description": "text"
    },
    "grid": [
        "name",
        "created_at",
        "updated_at"
    ],
    "form": {
        "name": "text",
        "slug": "slug:name",
        "description": "textarea"
    },
    "require": [
        "user"
    ],
    "relations": {
        "users" : "belongsToMany:User,users_groups,user_id,group_id"
    },
    "options": {
        "icon" : "fa-th-large",   
        "timestamps" : true,
        "status" : true,
        "per_page" : 20
    }

}